Barcode		4	2	3	6	5	9
33340081	1	2	0	TRUE	FALSE	BAE-JC
33340180	2	1	1	FALSE	TRUE	EPSRC-RF
33340043	1	2	0	TRUE	FALSE	SIEMENS-CG
33340173	0	1	1	FALSE	TRUE	CUMMINS-SG
33340067	1	3	0	TRUE	FALSE	LOR-GH
33340272	2	1	1	FALSE	TRUE	PA-RJ
33340159	1	2	0	TRUE	FALSE	FAIR-ML
33340029	0	3	1	FALSE	TRUE	IUK-LMCG
33340012	0	2	0	TRUE	FALSE	HP-PM
33340319	2	1	1	FALSE	TRUE	SIEMENS-AN
33340258	3	1	0	TRUE	FALSE	ARM-SO
33340289	2	1	1	FALSE	TRUE	HP-SR
33340111	1	3	0	TRUE	FALSE	HP-CS
33340135	0	2	1	FALSE	TRUE	RTI-BS
33340005	3	1	0	TRUE	FALSE	IBM-NT
33340234	1	2	1	FALSE	TRUE	GBA-BV
33340326	1	2	0	TRUE	FALSE	IUK-DW
33340197	0	2	1	FALSE	TRUE	UON-NA
33340036	3	1	0	TRUE	FALSE	UON-HA
33340098	0	3	1	FALSE	TRUE	UON-OB
33340340	1	2	0	TRUE	FALSE	UON-PB
33340227	2	1	1	FALSE	TRUE	UON-DB
33340050	0	1	0	TRUE	FALSE	UON-DG
33340357	0	3	1	FALSE	TRUE	UON-RG
33340302	0	1	0	TRUE	FALSE	UON-EK
33340203	1	2	1	FALSE	TRUE	NU-NK
33340074	0	3	0	TRUE	FALSE	UON-KP
33340142	0	2	1	FALSE	TRUE	UON-AP
33340241	0	3	0	TRUE	FALSE	UON-SR
33340166	1	2	1	FALSE	TRUE	UON-DS
33340210	3	1	0	TRUE	FALSE	UON-SS
33340333	1	1	1	FALSE	TRUE	UON-GTA
